{
  "albums": {
    "href": "https://api.spotify.com/v1/search?query=lover&type=album&offset=0&limit=5",
    "items": [
      {
        "album_type": "album",
        "artists": [
          {
            "external_urls": {
              "spotify": "https://open.spotify.com/artist/06HL4z0CvFAxyc27GXpf02"
            },
            "href": "https://api.spotify.com/v1/artists/06HL4z0CvFAxyc27GXpf02",
            "id": "06HL4z0CvFAxyc27GXpf02",
            "name": "Taylor Swift",
            "type": "artist",
            "uri": "spotify:artist:06HL4z0CvFAxyc27GXpf02"
          }
        ],
        "available_markets": [
          "AD",
          "AE",
          "AR",
          "AT",
          "AU",
          "BE",
          "BG",
          "BH",
          "BO",
          "BR",
          "CA",
          "CH",
          "CL",
          "CO",
          "CR",
          "CY",
          "CZ",
          "DE",
          "DK",
          "DO",
          "DZ",
          "EC",
          "EE",
          "EG",
          "ES",
          "FI",
          "FR",
          "GB",
          "GR",
          "GT",
          "HK",
          "HN",
          "HU",
          "ID",
          "IE",
          "IL",
          "IN",
          "IS",
          "IT",
          "JO",
          "JP",
          "KW",
          "LB",
          "LI",
          "LT",
          "LU",
          "LV",
          "MA",
          "MC",
          "MT",
          "MX",
          "MY",
          "NI",
          "NL",
          "NO",
          "NZ",
          "OM",
          "PA",
          "PE",
          "PH",
          "PL",
          "PS",
          "PT",
          "PY",
          "QA",
          "RO",
          "SA",
          "SE",
          "SG",
          "SK",
          "SV",
          "TH",
          "TN",
          "TR",
          "TW",
          "US",
          "UY",
          "VN",
          "ZA"
        ],
        "external_urls": {
          "spotify": "https://open.spotify.com/album/1NAmidJlEaVgA3MpcPFYGq"
        },
        "href": "https://api.spotify.com/v1/albums/1NAmidJlEaVgA3MpcPFYGq",
        "id": "1NAmidJlEaVgA3MpcPFYGq",
        "images": [
          {
            "height": 640,
            "url": "https://i.scdn.co/image/e30b81b756002dffe808888a4b67461e15e67681",
            "width": 640
          },
          {
            "height": 300,
            "url": "https://i.scdn.co/image/ba57a607d5cf61c9ea713cfce7ca6ccb24b4773f",
            "width": 300
          },
          {
            "height": 64,
            "url": "https://i.scdn.co/image/6a7357e1e6e867fb533e459da09f5c99b66911f2",
            "width": 64
          }
        ],
        "name": "Lover",
        "release_date": "2019-08-23",
        "release_date_precision": "day",
        "total_tracks": 18,
        "type": "album",
        "uri": "spotify:album:1NAmidJlEaVgA3MpcPFYGq"
      },
      {
        "album_type": "single",
        "artists": [
          {
            "external_urls": {
              "spotify": "https://open.spotify.com/artist/06HL4z0CvFAxyc27GXpf02"
            },
            "href": "https://api.spotify.com/v1/artists/06HL4z0CvFAxyc27GXpf02",
            "id": "06HL4z0CvFAxyc27GXpf02",
            "name": "Taylor Swift",
            "type": "artist",
            "uri": "spotify:artist:06HL4z0CvFAxyc27GXpf02"
          }
        ],
        "available_markets": [
          "AD",
          "AE",
          "AR",
          "AT",
          "AU",
          "BE",
          "BG",
          "BH",
          "BO",
          "BR",
          "CA",
          "CH",
          "CL",
          "CO",
          "CR",
          "CY",
          "CZ",
          "DE",
          "DK",
          "DO",
          "DZ",
          "EC",
          "EE",
          "EG",
          "ES",
          "FI",
          "FR",
          "GB",
          "GR",
          "GT",
          "HK",
          "HN",
          "HU",
          "ID",
          "IE",
          "IL",
          "IN",
          "IS",
          "IT",
          "JO",
          "JP",
          "KW",
          "LB",
          "LI",
          "LT",
          "LU",
          "LV",
          "MA",
          "MC",
          "MT",
          "MX",
          "MY",
          "NI",
          "NL",
          "NO",
          "NZ",
          "OM",
          "PA",
          "PE",
          "PH",
          "PL",
          "PS",
          "PT",
          "PY",
          "QA",
          "RO",
          "SA",
          "SE",
          "SG",
          "SK",
          "SV",
          "TH",
          "TN",
          "TR",
          "TW",
          "US",
          "UY",
          "VN",
          "ZA"
        ],
        "external_urls": {
          "spotify": "https://open.spotify.com/album/6Ou4LWiU2Vu2V7KdHzw9At"
        },
        "href": "https://api.spotify.com/v1/albums/6Ou4LWiU2Vu2V7KdHzw9At",
        "id": "6Ou4LWiU2Vu2V7KdHzw9At",
        "images": [
          {
            "height": 640,
            "url": "https://i.scdn.co/image/5eae5fbaa8b72442bec0a1cc0bd1e5d3cd7a521c",
            "width": 640
          },
          {
            "height": 300,
            "url": "https://i.scdn.co/image/65bed934faff64a2dd053602f1322ce232fe331f",
            "width": 300
          },
          {
            "height": 64,
            "url": "https://i.scdn.co/image/16281878bd8b484957e91b2701c6af1e62403fb6",
            "width": 64
          }
        ],
        "name": "Lover (First Dance Remix)",
        "release_date": "2019-11-26",
        "release_date_precision": "day",
        "total_tracks": 1,
        "type": "album",
        "uri": "spotify:album:6Ou4LWiU2Vu2V7KdHzw9At"
      },
      {
        "album_type": "single",
        "artists": [
          {
            "external_urls": {
              "spotify": "https://open.spotify.com/artist/06HL4z0CvFAxyc27GXpf02"
            },
            "href": "https://api.spotify.com/v1/artists/06HL4z0CvFAxyc27GXpf02",
            "id": "06HL4z0CvFAxyc27GXpf02",
            "name": "Taylor Swift",
            "type": "artist",
            "uri": "spotify:artist:06HL4z0CvFAxyc27GXpf02"
          },
          {
            "external_urls": {
              "spotify": "https://open.spotify.com/artist/7n2wHs1TKAczGzO7Dd2rGr"
            },
            "href": "https://api.spotify.com/v1/artists/7n2wHs1TKAczGzO7Dd2rGr",
            "id": "7n2wHs1TKAczGzO7Dd2rGr",
            "name": "Shawn Mendes",
            "type": "artist",
            "uri": "spotify:artist:7n2wHs1TKAczGzO7Dd2rGr"
          }
        ],
        "available_markets": [
          "AD",
          "AE",
          "AR",
          "AT",
          "AU",
          "BE",
          "BG",
          "BH",
          "BO",
          "BR",
          "CA",
          "CH",
          "CL",
          "CO",
          "CR",
          "CY",
          "CZ",
          "DE",
          "DK",
          "DO",
          "DZ",
          "EC",
          "EE",
          "EG",
          "ES",
          "FI",
          "FR",
          "GB",
          "GR",
          "GT",
          "HK",
          "HN",
          "HU",
          "ID",
          "IE",
          "IL",
          "IN",
          "IS",
          "IT",
          "JO",
          "JP",
          "KW",
          "LB",
          "LI",
          "LT",
          "LU",
          "LV",
          "MA",
          "MC",
          "MT",
          "MX",
          "MY",
          "NI",
          "NL",
          "NO",
          "NZ",
          "OM",
          "PA",
          "PE",
          "PH",
          "PL",
          "PS",
          "PT",
          "PY",
          "QA",
          "RO",
          "SA",
          "SE",
          "SG",
          "SK",
          "SV",
          "TH",
          "TN",
          "TR",
          "TW",
          "US",
          "UY",
          "VN",
          "ZA"
        ],
        "external_urls": {
          "spotify": "https://open.spotify.com/album/2UfvnX1YYeC2cExMQTMbXC"
        },
        "href": "https://api.spotify.com/v1/albums/2UfvnX1YYeC2cExMQTMbXC",
        "id": "2UfvnX1YYeC2cExMQTMbXC",
        "images": [
          {
            "height": 640,
            "url": "https://i.scdn.co/image/4632c80d3cb4569e245fd862d90e3f5b184d3a57",
            "width": 640
          },
          {
            "height": 300,
            "url": "https://i.scdn.co/image/a6638842ff8c23315ac2cd294f88d19c043b0006",
            "width": 300
          },
          {
            "height": 64,
            "url": "https://i.scdn.co/image/ef1b77350be2414e45622cb4743ec616e2905d48",
            "width": 64
          }
        ],
        "name": "Lover (Remix) [feat. Shawn Mendes]",
        "release_date": "2019-11-13",
        "release_date_precision": "day",
        "total_tracks": 1,
        "type": "album",
        "uri": "spotify:album:2UfvnX1YYeC2cExMQTMbXC"
      },
      {
        "album_type": "single",
        "artists": [
          {
            "external_urls": {
              "spotify": "https://open.spotify.com/artist/6gK1Uct5FEdaUWRWpU4Cl2"
            },
            "href": "https://api.spotify.com/v1/artists/6gK1Uct5FEdaUWRWpU4Cl2",
            "id": "6gK1Uct5FEdaUWRWpU4Cl2",
            "name": "Petit Biscuit",
            "type": "artist",
            "uri": "spotify:artist:6gK1Uct5FEdaUWRWpU4Cl2"
          }
        ],
        "available_markets": [
          "AD",
          "AE",
          "AR",
          "AT",
          "AU",
          "BE",
          "BG",
          "BH",
          "BO",
          "BR",
          "CA",
          "CH",
          "CL",
          "CO",
          "CR",
          "CY",
          "CZ",
          "DE",
          "DK",
          "DO",
          "DZ",
          "EC",
          "EE",
          "EG",
          "ES",
          "FI",
          "FR",
          "GB",
          "GR",
          "GT",
          "HK",
          "HN",
          "HU",
          "ID",
          "IE",
          "IL",
          "IN",
          "IS",
          "IT",
          "JO",
          "JP",
          "KW",
          "LB",
          "LI",
          "LT",
          "LU",
          "LV",
          "MA",
          "MC",
          "MT",
          "MX",
          "MY",
          "NI",
          "NL",
          "NO",
          "NZ",
          "OM",
          "PA",
          "PE",
          "PH",
          "PL",
          "PS",
          "PT",
          "PY",
          "QA",
          "RO",
          "SA",
          "SE",
          "SG",
          "SK",
          "SV",
          "TH",
          "TN",
          "TR",
          "TW",
          "US",
          "UY",
          "VN",
          "ZA"
        ],
        "external_urls": {
          "spotify": "https://open.spotify.com/album/4Ky2PpWb26OxNabAMffyBw"
        },
        "href": "https://api.spotify.com/v1/albums/4Ky2PpWb26OxNabAMffyBw",
        "id": "4Ky2PpWb26OxNabAMffyBw",
        "images": [
          {
            "height": 640,
            "url": "https://i.scdn.co/image/ab67616d0000b273014080d39d56c94c0b285362",
            "width": 640
          },
          {
            "height": 300,
            "url": "https://i.scdn.co/image/ab67616d00001e02014080d39d56c94c0b285362",
            "width": 300
          },
          {
            "height": 64,
            "url": "https://i.scdn.co/image/ab67616d00004851014080d39d56c94c0b285362",
            "width": 64
          }
        ],
        "name": "Sunset Lover",
        "release_date": "2015",
        "release_date_precision": "year",
        "total_tracks": 1,
        "type": "album",
        "uri": "spotify:album:4Ky2PpWb26OxNabAMffyBw"
      },
      {
        "album_type": "single",
        "artists": [
          {
            "external_urls": {
              "spotify": "https://open.spotify.com/artist/5mqguTgtaoCMNMZD6txCh6"
            },
            "href": "https://api.spotify.com/v1/artists/5mqguTgtaoCMNMZD6txCh6",
            "id": "5mqguTgtaoCMNMZD6txCh6",
            "name": "Phum Viphurit",
            "type": "artist",
            "uri": "spotify:artist:5mqguTgtaoCMNMZD6txCh6"
          }
        ],
        "available_markets": [
          "AD",
          "AE",
          "AR",
          "AT",
          "AU",
          "BE",
          "BG",
          "BH",
          "BO",
          "BR",
          "CA",
          "CH",
          "CL",
          "CO",
          "CR",
          "CY",
          "CZ",
          "DE",
          "DK",
          "DO",
          "DZ",
          "EC",
          "EE",
          "EG",
          "ES",
          "FI",
          "FR",
          "GB",
          "GR",
          "GT",
          "HK",
          "HN",
          "HU",
          "ID",
          "IE",
          "IL",
          "IN",
          "IS",
          "IT",
          "JO",
          "JP",
          "KW",
          "LB",
          "LI",
          "LT",
          "LU",
          "LV",
          "MA",
          "MC",
          "MT",
          "MX",
          "MY",
          "NI",
          "NL",
          "NO",
          "NZ",
          "OM",
          "PA",
          "PE",
          "PH",
          "PL",
          "PS",
          "PT",
          "PY",
          "QA",
          "RO",
          "SA",
          "SE",
          "SG",
          "SK",
          "SV",
          "TH",
          "TN",
          "TR",
          "TW",
          "US",
          "UY",
          "VN",
          "ZA"
        ],
        "external_urls": {
          "spotify": "https://open.spotify.com/album/6q6pANmFQbMk7KzlzNeBep"
        },
        "href": "https://api.spotify.com/v1/albums/6q6pANmFQbMk7KzlzNeBep",
        "id": "6q6pANmFQbMk7KzlzNeBep",
        "images": [
          {
            "height": 640,
            "url": "https://i.scdn.co/image/ab67616d0000b273ebefdcb9f6e825e8582bbac4",
            "width": 640
          },
          {
            "height": 300,
            "url": "https://i.scdn.co/image/ab67616d00001e02ebefdcb9f6e825e8582bbac4",
            "width": 300
          },
          {
            "height": 64,
            "url": "https://i.scdn.co/image/ab67616d00004851ebefdcb9f6e825e8582bbac4",
            "width": 64
          }
        ],
        "name": "Lover Boy",
        "release_date": "2018-03-22",
        "release_date_precision": "day",
        "total_tracks": 1,
        "type": "album",
        "uri": "spotify:album:6q6pANmFQbMk7KzlzNeBep"
      }
    ],
    "limit": 5,
    "next": "https://api.spotify.com/v1/search?query=lover&type=album&offset=5&limit=5",
    "offset": 0,
    "previous": null,
    "total": 5824
  }
}