{
  "tracks": {
    "href": "https://api.spotify.com/v1/search?query=sugar&type=track&offset=0&limit=5",
    "items": [
      {
        "album": {
          "album_type": "single",
          "artists": [
            {
              "external_urls": {
                "spotify": "https://open.spotify.com/artist/6KImCVD70vtIoJWnq6nGn3"
              },
              "href": "https://api.spotify.com/v1/artists/6KImCVD70vtIoJWnq6nGn3",
              "id": "6KImCVD70vtIoJWnq6nGn3",
              "name": "Harry Styles",
              "type": "artist",
              "uri": "spotify:artist:6KImCVD70vtIoJWnq6nGn3"
            }
          ],
          "available_markets": [
            "AD",
            "AE",
            "AR",
            "AT",
            "AU",
            "BE",
            "BG",
            "BH",
            "BO",
            "BR",
            "CA",
            "CH",
            "CL",
            "CO",
            "CR",
            "CY",
            "CZ",
            "DE",
            "DK",
            "DO",
            "DZ",
            "EC",
            "EE",
            "EG",
            "ES",
            "FI",
            "FR",
            "GB",
            "GR",
            "GT",
            "HK",
            "HN",
            "HU",
            "ID",
            "IE",
            "IL",
            "IN",
            "IS",
            "IT",
            "JO",
            "JP",
            "KW",
            "LB",
            "LI",
            "LT",
            "LU",
            "LV",
            "MA",
            "MC",
            "MT",
            "MX",
            "MY",
            "NI",
            "NL",
            "NO",
            "NZ",
            "OM",
            "PA",
            "PE",
            "PH",
            "PL",
            "PS",
            "PT",
            "PY",
            "QA",
            "RO",
            "SA",
            "SE",
            "SG",
            "SK",
            "SV",
            "TH",
            "TN",
            "TR",
            "TW",
            "US",
            "UY",
            "VN",
            "ZA"
          ],
          "external_urls": {
            "spotify": "https://open.spotify.com/album/659e2eKbsMH0vYCs5qgFmy"
          },
          "href": "https://api.spotify.com/v1/albums/659e2eKbsMH0vYCs5qgFmy",
          "id": "659e2eKbsMH0vYCs5qgFmy",
          "images": [
            {
              "height": 640,
              "url": "https://i.scdn.co/image/9cc77a8f62923a063996321d437663469fbff5c6",
              "width": 640
            },
            {
              "height": 300,
              "url": "https://i.scdn.co/image/ae074701eb87c0f1512a73142658868ebc1e0f92",
              "width": 300
            },
            {
              "height": 64,
              "url": "https://i.scdn.co/image/a2cdbdbf859949d3d23b977bbf1915db5e295a47",
              "width": 64
            }
          ],
          "name": "Watermelon Sugar",
          "release_date": "2019-11-17",
          "release_date_precision": "day",
          "total_tracks": 2,
          "type": "album",
          "uri": "spotify:album:659e2eKbsMH0vYCs5qgFmy"
        },
        "artists": [
          {
            "external_urls": {
              "spotify": "https://open.spotify.com/artist/6KImCVD70vtIoJWnq6nGn3"
            },
            "href": "https://api.spotify.com/v1/artists/6KImCVD70vtIoJWnq6nGn3",
            "id": "6KImCVD70vtIoJWnq6nGn3",
            "name": "Harry Styles",
            "type": "artist",
            "uri": "spotify:artist:6KImCVD70vtIoJWnq6nGn3"
          }
        ],
        "available_markets": [
          "AD",
          "AE",
          "AR",
          "AT",
          "AU",
          "BE",
          "BG",
          "BH",
          "BO",
          "BR",
          "CA",
          "CH",
          "CL",
          "CO",
          "CR",
          "CY",
          "CZ",
          "DE",
          "DK",
          "DO",
          "DZ",
          "EC",
          "EE",
          "EG",
          "ES",
          "FI",
          "FR",
          "GB",
          "GR",
          "GT",
          "HK",
          "HN",
          "HU",
          "ID",
          "IE",
          "IL",
          "IN",
          "IS",
          "IT",
          "JO",
          "JP",
          "KW",
          "LB",
          "LI",
          "LT",
          "LU",
          "LV",
          "MA",
          "MC",
          "MT",
          "MX",
          "MY",
          "NI",
          "NL",
          "NO",
          "NZ",
          "OM",
          "PA",
          "PE",
          "PH",
          "PL",
          "PS",
          "PT",
          "PY",
          "QA",
          "RO",
          "SA",
          "SE",
          "SG",
          "SK",
          "SV",
          "TH",
          "TN",
          "TR",
          "TW",
          "US",
          "UY",
          "VN",
          "ZA"
        ],
        "disc_number": 1,
        "duration_ms": 174000,
        "explicit": false,
        "external_ids": {
          "isrc": "USSM11912587"
        },
        "external_urls": {
          "spotify": "https://open.spotify.com/track/1e9oZCCiX42nJl0AcqriVo"
        },
        "href": "https://api.spotify.com/v1/tracks/1e9oZCCiX42nJl0AcqriVo",
        "id": "1e9oZCCiX42nJl0AcqriVo",
        "is_local": false,
        "name": "Watermelon Sugar",
        "popularity": 90,
        "preview_url": "https://p.scdn.co/mp3-preview/0c51b5f7ed852504844feebfb4f4b7f099452662?cid=774b29d4f13844c495f206cafdad9c86",
        "track_number": 1,
        "type": "track",
        "uri": "spotify:track:1e9oZCCiX42nJl0AcqriVo"
      },
      {
        "album": {
          "album_type": "album",
          "artists": [
            {
              "external_urls": {
                "spotify": "https://open.spotify.com/artist/1Bl6wpkWCQ4KVgnASpvzzA"
              },
              "href": "https://api.spotify.com/v1/artists/1Bl6wpkWCQ4KVgnASpvzzA",
              "id": "1Bl6wpkWCQ4KVgnASpvzzA",
              "name": "BROCKHAMPTON",
              "type": "artist",
              "uri": "spotify:artist:1Bl6wpkWCQ4KVgnASpvzzA"
            }
          ],
          "available_markets": [
            "AD",
            "AE",
            "AR",
            "AT",
            "AU",
            "BE",
            "BG",
            "BH",
            "BO",
            "BR",
            "CA",
            "CH",
            "CL",
            "CO",
            "CR",
            "CY",
            "CZ",
            "DE",
            "DK",
            "DO",
            "DZ",
            "EC",
            "EE",
            "EG",
            "ES",
            "FI",
            "FR",
            "GB",
            "GR",
            "GT",
            "HK",
            "HN",
            "HU",
            "ID",
            "IE",
            "IL",
            "IN",
            "IS",
            "IT",
            "JO",
            "JP",
            "KW",
            "LB",
            "LI",
            "LT",
            "LU",
            "LV",
            "MA",
            "MC",
            "MT",
            "MX",
            "MY",
            "NI",
            "NL",
            "NO",
            "NZ",
            "OM",
            "PA",
            "PE",
            "PH",
            "PL",
            "PS",
            "PT",
            "PY",
            "QA",
            "RO",
            "SA",
            "SE",
            "SG",
            "SK",
            "SV",
            "TH",
            "TN",
            "TR",
            "TW",
            "US",
            "UY",
            "VN",
            "ZA"
          ],
          "external_urls": {
            "spotify": "https://open.spotify.com/album/1jToVugwBEzcak8gJNZG2f"
          },
          "href": "https://api.spotify.com/v1/albums/1jToVugwBEzcak8gJNZG2f",
          "id": "1jToVugwBEzcak8gJNZG2f",
          "images": [
            {
              "height": 640,
              "url": "https://i.scdn.co/image/ab67616d0000b27346f07fa4f28bf824840ddacb",
              "width": 640
            },
            {
              "height": 300,
              "url": "https://i.scdn.co/image/ab67616d00001e0246f07fa4f28bf824840ddacb",
              "width": 300
            },
            {
              "height": 64,
              "url": "https://i.scdn.co/image/ab67616d0000485146f07fa4f28bf824840ddacb",
              "width": 64
            }
          ],
          "name": "GINGER",
          "release_date": "2019-08-23",
          "release_date_precision": "day",
          "total_tracks": 12,
          "type": "album",
          "uri": "spotify:album:1jToVugwBEzcak8gJNZG2f"
        },
        "artists": [
          {
            "external_urls": {
              "spotify": "https://open.spotify.com/artist/1Bl6wpkWCQ4KVgnASpvzzA"
            },
            "href": "https://api.spotify.com/v1/artists/1Bl6wpkWCQ4KVgnASpvzzA",
            "id": "1Bl6wpkWCQ4KVgnASpvzzA",
            "name": "BROCKHAMPTON",
            "type": "artist",
            "uri": "spotify:artist:1Bl6wpkWCQ4KVgnASpvzzA"
          }
        ],
        "available_markets": [
          "AD",
          "AE",
          "AR",
          "AT",
          "AU",
          "BE",
          "BG",
          "BH",
          "BO",
          "BR",
          "CA",
          "CH",
          "CL",
          "CO",
          "CR",
          "CY",
          "CZ",
          "DE",
          "DK",
          "DO",
          "DZ",
          "EC",
          "EE",
          "EG",
          "ES",
          "FI",
          "FR",
          "GB",
          "GR",
          "GT",
          "HK",
          "HN",
          "HU",
          "ID",
          "IE",
          "IL",
          "IN",
          "IS",
          "IT",
          "JO",
          "JP",
          "KW",
          "LB",
          "LI",
          "LT",
          "LU",
          "LV",
          "MA",
          "MC",
          "MT",
          "MX",
          "MY",
          "NI",
          "NL",
          "NO",
          "NZ",
          "OM",
          "PA",
          "PE",
          "PH",
          "PL",
          "PS",
          "PT",
          "PY",
          "QA",
          "RO",
          "SA",
          "SE",
          "SG",
          "SK",
          "SV",
          "TH",
          "TN",
          "TR",
          "TW",
          "US",
          "UY",
          "VN",
          "ZA"
        ],
        "disc_number": 1,
        "duration_ms": 204533,
        "explicit": true,
        "external_ids": {
          "isrc": "USRC11901564"
        },
        "external_urls": {
          "spotify": "https://open.spotify.com/track/6U0FIYXCQ3TGrk4tFpLrEA"
        },
        "href": "https://api.spotify.com/v1/tracks/6U0FIYXCQ3TGrk4tFpLrEA",
        "id": "6U0FIYXCQ3TGrk4tFpLrEA",
        "is_local": false,
        "name": "SUGAR",
        "popularity": 79,
        "preview_url": "https://p.scdn.co/mp3-preview/5ede99e4306c75ac7b99f277807fb91c2ce5c785?cid=774b29d4f13844c495f206cafdad9c86",
        "track_number": 2,
        "type": "track",
        "uri": "spotify:track:6U0FIYXCQ3TGrk4tFpLrEA"
      },
      {
        "album": {
          "album_type": "single",
          "artists": [
            {
              "external_urls": {
                "spotify": "https://open.spotify.com/artist/6KImCVD70vtIoJWnq6nGn3"
              },
              "href": "https://api.spotify.com/v1/artists/6KImCVD70vtIoJWnq6nGn3",
              "id": "6KImCVD70vtIoJWnq6nGn3",
              "name": "Harry Styles",
              "type": "artist",
              "uri": "spotify:artist:6KImCVD70vtIoJWnq6nGn3"
            }
          ],
          "available_markets": [
            "AD",
            "AE",
            "AR",
            "AT",
            "AU",
            "BE",
            "BG",
            "BH",
            "BO",
            "BR",
            "CA",
            "CH",
            "CL",
            "CO",
            "CR",
            "CY",
            "CZ",
            "DE",
            "DK",
            "DO",
            "DZ",
            "EC",
            "EE",
            "EG",
            "ES",
            "FI",
            "FR",
            "GB",
            "GR",
            "GT",
            "HK",
            "HN",
            "HU",
            "ID",
            "IE",
            "IL",
            "IN",
            "IS",
            "IT",
            "JO",
            "JP",
            "KW",
            "LB",
            "LI",
            "LT",
            "LU",
            "LV",
            "MA",
            "MC",
            "MT",
            "MX",
            "MY",
            "NI",
            "NL",
            "NO",
            "NZ",
            "OM",
            "PA",
            "PE",
            "PH",
            "PL",
            "PS",
            "PT",
            "PY",
            "QA",
            "RO",
            "SA",
            "SE",
            "SG",
            "SK",
            "SV",
            "TH",
            "TN",
            "TR",
            "TW",
            "US",
            "UY",
            "VN",
            "ZA"
          ],
          "external_urls": {
            "spotify": "https://open.spotify.com/album/659e2eKbsMH0vYCs5qgFmy"
          },
          "href": "https://api.spotify.com/v1/albums/659e2eKbsMH0vYCs5qgFmy",
          "id": "659e2eKbsMH0vYCs5qgFmy",
          "images": [
            {
              "height": 640,
              "url": "https://i.scdn.co/image/9cc77a8f62923a063996321d437663469fbff5c6",
              "width": 640
            },
            {
              "height": 300,
              "url": "https://i.scdn.co/image/ae074701eb87c0f1512a73142658868ebc1e0f92",
              "width": 300
            },
            {
              "height": 64,
              "url": "https://i.scdn.co/image/a2cdbdbf859949d3d23b977bbf1915db5e295a47",
              "width": 64
            }
          ],
          "name": "Watermelon Sugar",
          "release_date": "2019-11-17",
          "release_date_precision": "day",
          "total_tracks": 2,
          "type": "album",
          "uri": "spotify:album:659e2eKbsMH0vYCs5qgFmy"
        },
        "artists": [
          {
            "external_urls": {
              "spotify": "https://open.spotify.com/artist/6KImCVD70vtIoJWnq6nGn3"
            },
            "href": "https://api.spotify.com/v1/artists/6KImCVD70vtIoJWnq6nGn3",
            "id": "6KImCVD70vtIoJWnq6nGn3",
            "name": "Harry Styles",
            "type": "artist",
            "uri": "spotify:artist:6KImCVD70vtIoJWnq6nGn3"
          }
        ],
        "available_markets": [
          "AD",
          "AE",
          "AR",
          "AT",
          "AU",
          "BE",
          "BG",
          "BH",
          "BO",
          "BR",
          "CA",
          "CH",
          "CL",
          "CO",
          "CR",
          "CY",
          "CZ",
          "DE",
          "DK",
          "DO",
          "DZ",
          "EC",
          "EE",
          "EG",
          "ES",
          "FI",
          "FR",
          "GB",
          "GR",
          "GT",
          "HK",
          "HN",
          "HU",
          "ID",
          "IE",
          "IL",
          "IN",
          "IS",
          "IT",
          "JO",
          "JP",
          "KW",
          "LB",
          "LI",
          "LT",
          "LU",
          "LV",
          "MA",
          "MC",
          "MT",
          "MX",
          "MY",
          "NI",
          "NL",
          "NO",
          "NZ",
          "OM",
          "PA",
          "PE",
          "PH",
          "PL",
          "PS",
          "PT",
          "PY",
          "QA",
          "RO",
          "SA",
          "SE",
          "SG",
          "SK",
          "SV",
          "TH",
          "TN",
          "TR",
          "TW",
          "US",
          "UY",
          "VN",
          "ZA"
        ],
        "disc_number": 1,
        "duration_ms": 172213,
        "explicit": false,
        "external_ids": {
          "isrc": "USSM11910404"
        },
        "external_urls": {
          "spotify": "https://open.spotify.com/track/5aJEh9Oqdz7PRLKTpH25pB"
        },
        "href": "https://api.spotify.com/v1/tracks/5aJEh9Oqdz7PRLKTpH25pB",
        "id": "5aJEh9Oqdz7PRLKTpH25pB",
        "is_local": false,
        "name": "Lights Up",
        "popularity": 85,
        "preview_url": "https://p.scdn.co/mp3-preview/2a91b13bd532e2752e0c48d23a459b873d9bf530?cid=774b29d4f13844c495f206cafdad9c86",
        "track_number": 2,
        "type": "track",
        "uri": "spotify:track:5aJEh9Oqdz7PRLKTpH25pB"
      },
      {
        "album": {
          "album_type": "album",
          "artists": [
            {
              "external_urls": {
                "spotify": "https://open.spotify.com/artist/4UXqAaa6dQYAk18Lv7PEgX"
              },
              "href": "https://api.spotify.com/v1/artists/4UXqAaa6dQYAk18Lv7PEgX",
              "id": "4UXqAaa6dQYAk18Lv7PEgX",
              "name": "Fall Out Boy",
              "type": "artist",
              "uri": "spotify:artist:4UXqAaa6dQYAk18Lv7PEgX"
            }
          ],
          "available_markets": [
            "AD",
            "AE",
            "AR",
            "AT",
            "AU",
            "BE",
            "BG",
            "BH",
            "BO",
            "BR",
            "CA",
            "CH",
            "CL",
            "CO",
            "CR",
            "CY",
            "CZ",
            "DE",
            "DK",
            "DO",
            "DZ",
            "EC",
            "EE",
            "EG",
            "ES",
            "FI",
            "FR",
            "GB",
            "GR",
            "GT",
            "HK",
            "HN",
            "HU",
            "ID",
            "IE",
            "IL",
            "IN",
            "IS",
            "IT",
            "JO",
            "JP",
            "KW",
            "LB",
            "LI",
            "LT",
            "LU",
            "LV",
            "MA",
            "MC",
            "MT",
            "MX",
            "MY",
            "NI",
            "NL",
            "NO",
            "NZ",
            "OM",
            "PA",
            "PE",
            "PH",
            "PL",
            "PS",
            "PT",
            "PY",
            "QA",
            "RO",
            "SA",
            "SE",
            "SG",
            "SK",
            "SV",
            "TH",
            "TN",
            "TR",
            "TW",
            "US",
            "UY",
            "VN",
            "ZA"
          ],
          "external_urls": {
            "spotify": "https://open.spotify.com/album/5nkUSlIhtoJZMOUlB0sNCp"
          },
          "href": "https://api.spotify.com/v1/albums/5nkUSlIhtoJZMOUlB0sNCp",
          "id": "5nkUSlIhtoJZMOUlB0sNCp",
          "images": [
            {
              "height": 631,
              "url": "https://i.scdn.co/image/635b530e136a5c49d1a3dc7643a051b022d28c26",
              "width": 640
            },
            {
              "height": 296,
              "url": "https://i.scdn.co/image/71366edbfdd083f0febf50b369a57414ef1b0d03",
              "width": 300
            },
            {
              "height": 63,
              "url": "https://i.scdn.co/image/15db4959cc278ec71ddbe5495e6597b57c4b3685",
              "width": 64
            }
          ],
          "name": "From Under The Cork Tree",
          "release_date": "2005-01-01",
          "release_date_precision": "day",
          "total_tracks": 13,
          "type": "album",
          "uri": "spotify:album:5nkUSlIhtoJZMOUlB0sNCp"
        },
        "artists": [
          {
            "external_urls": {
              "spotify": "https://open.spotify.com/artist/4UXqAaa6dQYAk18Lv7PEgX"
            },
            "href": "https://api.spotify.com/v1/artists/4UXqAaa6dQYAk18Lv7PEgX",
            "id": "4UXqAaa6dQYAk18Lv7PEgX",
            "name": "Fall Out Boy",
            "type": "artist",
            "uri": "spotify:artist:4UXqAaa6dQYAk18Lv7PEgX"
          }
        ],
        "available_markets": [
          "AD",
          "AE",
          "AR",
          "AT",
          "AU",
          "BE",
          "BG",
          "BH",
          "BO",
          "BR",
          "CA",
          "CH",
          "CL",
          "CO",
          "CR",
          "CY",
          "CZ",
          "DE",
          "DK",
          "DO",
          "DZ",
          "EC",
          "EE",
          "EG",
          "ES",
          "FI",
          "FR",
          "GB",
          "GR",
          "GT",
          "HK",
          "HN",
          "HU",
          "ID",
          "IE",
          "IL",
          "IN",
          "IS",
          "IT",
          "JO",
          "JP",
          "KW",
          "LB",
          "LI",
          "LT",
          "LU",
          "LV",
          "MA",
          "MC",
          "MT",
          "MX",
          "MY",
          "NI",
          "NL",
          "NO",
          "NZ",
          "OM",
          "PA",
          "PE",
          "PH",
          "PL",
          "PS",
          "PT",
          "PY",
          "QA",
          "RO",
          "SA",
          "SE",
          "SG",
          "SK",
          "SV",
          "TH",
          "TN",
          "TR",
          "TW",
          "US",
          "UY",
          "VN",
          "ZA"
        ],
        "disc_number": 1,
        "duration_ms": 229093,
        "explicit": false,
        "external_ids": {
          "isrc": "USIR20500201"
        },
        "external_urls": {
          "spotify": "https://open.spotify.com/track/2TfSHkHiFO4gRztVIkggkE"
        },
        "href": "https://api.spotify.com/v1/tracks/2TfSHkHiFO4gRztVIkggkE",
        "id": "2TfSHkHiFO4gRztVIkggkE",
        "is_local": false,
        "name": "Sugar, We're Goin Down",
        "popularity": 78,
        "preview_url": null,
        "track_number": 4,
        "type": "track",
        "uri": "spotify:track:2TfSHkHiFO4gRztVIkggkE"
      },
      {
        "album": {
          "album_type": "album",
          "artists": [
            {
              "external_urls": {
                "spotify": "https://open.spotify.com/artist/04gDigrS5kc9YWfZHwBETP"
              },
              "href": "https://api.spotify.com/v1/artists/04gDigrS5kc9YWfZHwBETP",
              "id": "04gDigrS5kc9YWfZHwBETP",
              "name": "Maroon 5",
              "type": "artist",
              "uri": "spotify:artist:04gDigrS5kc9YWfZHwBETP"
            }
          ],
          "available_markets": [
            "AD",
            "AE",
            "AR",
            "AT",
            "AU",
            "BE",
            "BG",
            "BH",
            "BO",
            "BR",
            "CA",
            "CH",
            "CL",
            "CO",
            "CR",
            "CY",
            "CZ",
            "DE",
            "DK",
            "DO",
            "DZ",
            "EC",
            "EE",
            "EG",
            "ES",
            "FI",
            "FR",
            "GB",
            "GR",
            "GT",
            "HN",
            "HU",
            "IE",
            "IL",
            "IS",
            "IT",
            "JO",
            "KW",
            "LB",
            "LI",
            "LT",
            "LU",
            "LV",
            "MA",
            "MC",
            "MT",
            "MX",
            "NI",
            "NL",
            "NO",
            "NZ",
            "OM",
            "PA",
            "PE",
            "PL",
            "PT",
            "PY",
            "QA",
            "RO",
            "SA",
            "SK",
            "SV",
            "TN",
            "TR",
            "US",
            "UY",
            "ZA"
          ],
          "external_urls": {
            "spotify": "https://open.spotify.com/album/2Auw0pTT6EcQdvHNimhLQI"
          },
          "href": "https://api.spotify.com/v1/albums/2Auw0pTT6EcQdvHNimhLQI",
          "id": "2Auw0pTT6EcQdvHNimhLQI",
          "images": [
            {
              "height": 640,
              "url": "https://i.scdn.co/image/5e4e2c710236c10eb8b5fd961b36141adb90ff1e",
              "width": 640
            },
            {
              "height": 300,
              "url": "https://i.scdn.co/image/4477da1aa745323204d4911e2518ddf06599fca5",
              "width": 300
            },
            {
              "height": 64,
              "url": "https://i.scdn.co/image/6966c5272f08e51d0aae532786b56b54aeec2497",
              "width": 64
            }
          ],
          "name": "V",
          "release_date": "2015-05-15",
          "release_date_precision": "day",
          "total_tracks": 12,
          "type": "album",
          "uri": "spotify:album:2Auw0pTT6EcQdvHNimhLQI"
        },
        "artists": [
          {
            "external_urls": {
              "spotify": "https://open.spotify.com/artist/04gDigrS5kc9YWfZHwBETP"
            },
            "href": "https://api.spotify.com/v1/artists/04gDigrS5kc9YWfZHwBETP",
            "id": "04gDigrS5kc9YWfZHwBETP",
            "name": "Maroon 5",
            "type": "artist",
            "uri": "spotify:artist:04gDigrS5kc9YWfZHwBETP"
          }
        ],
        "available_markets": [
          "AD",
          "AE",
          "AR",
          "AT",
          "AU",
          "BE",
          "BG",
          "BH",
          "BO",
          "BR",
          "CA",
          "CH",
          "CL",
          "CO",
          "CR",
          "CY",
          "CZ",
          "DE",
          "DK",
          "DO",
          "DZ",
          "EC",
          "EE",
          "EG",
          "ES",
          "FI",
          "FR",
          "GB",
          "GR",
          "GT",
          "HN",
          "HU",
          "IE",
          "IL",
          "IS",
          "IT",
          "JO",
          "KW",
          "LB",
          "LI",
          "LT",
          "LU",
          "LV",
          "MA",
          "MC",
          "MT",
          "MX",
          "NI",
          "NL",
          "NO",
          "NZ",
          "OM",
          "PA",
          "PE",
          "PL",
          "PT",
          "PY",
          "QA",
          "RO",
          "SA",
          "SK",
          "SV",
          "TN",
          "TR",
          "US",
          "UY",
          "ZA"
        ],
        "disc_number": 1,
        "duration_ms": 235493,
        "explicit": true,
        "external_ids": {
          "isrc": "USUM71410340"
        },
        "external_urls": {
          "spotify": "https://open.spotify.com/track/2iuZJX9X9P0GKaE93xcPjk"
        },
        "href": "https://api.spotify.com/v1/tracks/2iuZJX9X9P0GKaE93xcPjk",
        "id": "2iuZJX9X9P0GKaE93xcPjk",
        "is_local": false,
        "name": "Sugar",
        "popularity": 81,
        "preview_url": null,
        "track_number": 5,
        "type": "track",
        "uri": "spotify:track:2iuZJX9X9P0GKaE93xcPjk"
      }
    ],
    "limit": 5,
    "next": "https://api.spotify.com/v1/search?query=sugar&type=track&offset=5&limit=5",
    "offset": 0,
    "previous": null,
    "total": 56376
  }
}